processor/counter_32.vcd
$date
	Tue Nov 29 16:43:34 2022
$end
$version
	Icarus Verilog
$end
$timescale
	1s
$end
$scope module counter_32_tb $end
$var wire 32 ! count [31:0] $end
$var reg 1 " clk $end
$var reg 1 # clr $end
$scope module counter32 $end
$var wire 1 $ T10 $end
$var wire 1 % T11 $end
$var wire 1 & T12 $end
$var wire 1 ' T13 $end
$var wire 1 ( T14 $end
$var wire 1 ) T15 $end
$var wire 1 * T16 $end
$var wire 1 + T17 $end
$var wire 1 , T18 $end
$var wire 1 - T19 $end
$var wire 1 . T2 $end
$var wire 1 / T20 $end
$var wire 1 0 T21 $end
$var wire 1 1 T22 $end
$var wire 1 2 T23 $end
$var wire 1 3 T24 $end
$var wire 1 4 T25 $end
$var wire 1 5 T26 $end
$var wire 1 6 T27 $end
$var wire 1 7 T28 $end
$var wire 1 8 T29 $end
$var wire 1 9 T3 $end
$var wire 1 : T30 $end
$var wire 1 ; T31 $end
$var wire 1 < T4 $end
$var wire 1 = T5 $end
$var wire 1 > T6 $end
$var wire 1 ? T7 $end
$var wire 1 @ T8 $end
$var wire 1 A T9 $end
$var wire 1 " clk $end
$var wire 1 # reset $end
$var wire 32 B count [31:0] $end
$scope module tff0 $end
$var wire 1 C D $end
$var wire 1 D T $end
$var wire 1 " clk $end
$var wire 1 # clr $end
$var wire 1 E Q $end
$scope module dffe1 $end
$var wire 1 " clk $end
$var wire 1 # clr $end
$var wire 1 C d $end
$var wire 1 F en $end
$var reg 1 E q $end
$upscope $end
$upscope $end
$scope module tff1 $end
$var wire 1 G D $end
$var wire 1 H T $end
$var wire 1 " clk $end
$var wire 1 # clr $end
$var wire 1 I Q $end
$scope module dffe1 $end
$var wire 1 " clk $end
$var wire 1 # clr $end
$var wire 1 G d $end
$var wire 1 J en $end
$var reg 1 I q $end
$upscope $end
$upscope $end
$scope module tff10 $end
$var wire 1 K D $end
$var wire 1 $ T $end
$var wire 1 " clk $end
$var wire 1 # clr $end
$var wire 1 L Q $end
$scope module dffe1 $end
$var wire 1 " clk $end
$var wire 1 # clr $end
$var wire 1 K d $end
$var wire 1 M en $end
$var reg 1 L q $end
$upscope $end
$upscope $end
$scope module tff11 $end
$var wire 1 N D $end
$var wire 1 % T $end
$var wire 1 " clk $end
$var wire 1 # clr $end
$var wire 1 O Q $end
$scope module dffe1 $end
$var wire 1 " clk $end
$var wire 1 # clr $end
$var wire 1 N d $end
$var wire 1 P en $end
$var reg 1 O q $end
$upscope $end
$upscope $end
$scope module tff12 $end
$var wire 1 Q D $end
$var wire 1 & T $end
$var wire 1 " clk $end
$var wire 1 # clr $end
$var wire 1 R Q $end
$scope module dffe1 $end
$var wire 1 " clk $end
$var wire 1 # clr $end
$var wire 1 Q d $end
$var wire 1 S en $end
$var reg 1 R q $end
$upscope $end
$upscope $end
$scope module tff13 $end
$var wire 1 T D $end
$var wire 1 ' T $end
$var wire 1 " clk $end
$var wire 1 # clr $end
$var wire 1 U Q $end
$scope module dffe1 $end
$var wire 1 " clk $end
$var wire 1 # clr $end
$var wire 1 T d $end
$var wire 1 V en $end
$var reg 1 U q $end
$upscope $end
$upscope $end
$scope module tff14 $end
$var wire 1 W D $end
$var wire 1 ( T $end
$var wire 1 " clk $end
$var wire 1 # clr $end
$var wire 1 X Q $end
$scope module dffe1 $end
$var wire 1 " clk $end
$var wire 1 # clr $end
$var wire 1 W d $end
$var wire 1 Y en $end
$var reg 1 X q $end
$upscope $end
$upscope $end
$scope module tff15 $end
$var wire 1 Z D $end
$var wire 1 ) T $end
$var wire 1 " clk $end
$var wire 1 # clr $end
$var wire 1 [ Q $end
$scope module dffe1 $end
$var wire 1 " clk $end
$var wire 1 # clr $end
$var wire 1 Z d $end
$var wire 1 \ en $end
$var reg 1 [ q $end
$upscope $end
$upscope $end
$scope module tff16 $end
$var wire 1 ] D $end
$var wire 1 * T $end
$var wire 1 " clk $end
$var wire 1 # clr $end
$var wire 1 ^ Q $end
$scope module dffe1 $end
$var wire 1 " clk $end
$var wire 1 # clr $end
$var wire 1 ] d $end
$var wire 1 _ en $end
$var reg 1 ^ q $end
$upscope $end
$upscope $end
$scope module tff17 $end
$var wire 1 ` D $end
$var wire 1 + T $end
$var wire 1 " clk $end
$var wire 1 # clr $end
$var wire 1 a Q $end
$scope module dffe1 $end
$var wire 1 " clk $end
$var wire 1 # clr $end
$var wire 1 ` d $end
$var wire 1 b en $end
$var reg 1 a q $end
$upscope $end
$upscope $end
$scope module tff18 $end
$var wire 1 c D $end
$var wire 1 , T $end
$var wire 1 " clk $end
$var wire 1 # clr $end
$var wire 1 d Q $end
$scope module dffe1 $end
$var wire 1 " clk $end
$var wire 1 # clr $end
$var wire 1 c d $end
$var wire 1 e en $end
$var reg 1 d q $end
$upscope $end
$upscope $end
$scope module tff19 $end
$var wire 1 f D $end
$var wire 1 - T $end
$var wire 1 " clk $end
$var wire 1 # clr $end
$var wire 1 g Q $end
$scope module dffe1 $end
$var wire 1 " clk $end
$var wire 1 # clr $end
$var wire 1 f d $end
$var wire 1 h en $end
$var reg 1 g q $end
$upscope $end
$upscope $end
$scope module tff2 $end
$var wire 1 i D $end
$var wire 1 . T $end
$var wire 1 " clk $end
$var wire 1 # clr $end
$var wire 1 j Q $end
$scope module dffe1 $end
$var wire 1 " clk $end
$var wire 1 # clr $end
$var wire 1 i d $end
$var wire 1 k en $end
$var reg 1 j q $end
$upscope $end
$upscope $end
$scope module tff20 $end
$var wire 1 l D $end
$var wire 1 / T $end
$var wire 1 " clk $end
$var wire 1 # clr $end
$var wire 1 m Q $end
$scope module dffe1 $end
$var wire 1 " clk $end
$var wire 1 # clr $end
$var wire 1 l d $end
$var wire 1 n en $end
$var reg 1 m q $end
$upscope $end
$upscope $end
$scope module tff21 $end
$var wire 1 o D $end
$var wire 1 0 T $end
$var wire 1 " clk $end
$var wire 1 # clr $end
$var wire 1 p Q $end
$scope module dffe1 $end
$var wire 1 " clk $end
$var wire 1 # clr $end
$var wire 1 o d $end
$var wire 1 q en $end
$var reg 1 p q $end
$upscope $end
$upscope $end
$scope module tff22 $end
$var wire 1 r D $end
$var wire 1 1 T $end
$var wire 1 " clk $end
$var wire 1 # clr $end
$var wire 1 s Q $end
$scope module dffe1 $end
$var wire 1 " clk $end
$var wire 1 # clr $end
$var wire 1 r d $end
$var wire 1 t en $end
$var reg 1 s q $end
$upscope $end
$upscope $end
$scope module tff23 $end
$var wire 1 u D $end
$var wire 1 2 T $end
$var wire 1 " clk $end
$var wire 1 # clr $end
$var wire 1 v Q $end
$scope module dffe1 $end
$var wire 1 " clk $end
$var wire 1 # clr $end
$var wire 1 u d $end
$var wire 1 w en $end
$var reg 1 v q $end
$upscope $end
$upscope $end
$scope module tff24 $end
$var wire 1 x D $end
$var wire 1 3 T $end
$var wire 1 " clk $end
$var wire 1 # clr $end
$var wire 1 y Q $end
$scope module dffe1 $end
$var wire 1 " clk $end
$var wire 1 # clr $end
$var wire 1 x d $end
$var wire 1 z en $end
$var reg 1 y q $end
$upscope $end
$upscope $end
$scope module tff25 $end
$var wire 1 { D $end
$var wire 1 4 T $end
$var wire 1 " clk $end
$var wire 1 # clr $end
$var wire 1 | Q $end
$scope module dffe1 $end
$var wire 1 " clk $end
$var wire 1 # clr $end
$var wire 1 { d $end
$var wire 1 } en $end
$var reg 1 | q $end
$upscope $end
$upscope $end
$scope module tff26 $end
$var wire 1 ~ D $end
$var wire 1 5 T $end
$var wire 1 " clk $end
$var wire 1 # clr $end
$var wire 1 !" Q $end
$scope module dffe1 $end
$var wire 1 " clk $end
$var wire 1 # clr $end
$var wire 1 ~ d $end
$var wire 1 "" en $end
$var reg 1 !" q $end
$upscope $end
$upscope $end
$scope module tff27 $end
$var wire 1 #" D $end
$var wire 1 6 T $end
$var wire 1 " clk $end
$var wire 1 # clr $end
$var wire 1 $" Q $end
$scope module dffe1 $end
$var wire 1 " clk $end
$var wire 1 # clr $end
$var wire 1 #" d $end
$var wire 1 %" en $end
$var reg 1 $" q $end
$upscope $end
$upscope $end
$scope module tff28 $end
$var wire 1 &" D $end
$var wire 1 7 T $end
$var wire 1 " clk $end
$var wire 1 # clr $end
$var wire 1 '" Q $end
$scope module dffe1 $end
$var wire 1 " clk $end
$var wire 1 # clr $end
$var wire 1 &" d $end
$var wire 1 (" en $end
$var reg 1 '" q $end
$upscope $end
$upscope $end
$scope module tff29 $end
$var wire 1 )" D $end
$var wire 1 8 T $end
$var wire 1 " clk $end
$var wire 1 # clr $end
$var wire 1 *" Q $end
$scope module dffe1 $end
$var wire 1 " clk $end
$var wire 1 # clr $end
$var wire 1 )" d $end
$var wire 1 +" en $end
$var reg 1 *" q $end
$upscope $end
$upscope $end
$scope module tff3 $end
$var wire 1 ," D $end
$var wire 1 9 T $end
$var wire 1 " clk $end
$var wire 1 # clr $end
$var wire 1 -" Q $end
$scope module dffe1 $end
$var wire 1 " clk $end
$var wire 1 # clr $end
$var wire 1 ," d $end
$var wire 1 ." en $end
$var reg 1 -" q $end
$upscope $end
$upscope $end
$scope module tff30 $end
$var wire 1 /" D $end
$var wire 1 : T $end
$var wire 1 " clk $end
$var wire 1 # clr $end
$var wire 1 0" Q $end
$scope module dffe1 $end
$var wire 1 " clk $end
$var wire 1 # clr $end
$var wire 1 /" d $end
$var wire 1 1" en $end
$var reg 1 0" q $end
$upscope $end
$upscope $end
$scope module tff31 $end
$var wire 1 2" D $end
$var wire 1 ; T $end
$var wire 1 " clk $end
$var wire 1 # clr $end
$var wire 1 3" Q $end
$scope module dffe1 $end
$var wire 1 " clk $end
$var wire 1 # clr $end
$var wire 1 2" d $end
$var wire 1 4" en $end
$var reg 1 3" q $end
$upscope $end
$upscope $end
$scope module tff4 $end
$var wire 1 5" D $end
$var wire 1 < T $end
$var wire 1 " clk $end
$var wire 1 # clr $end
$var wire 1 6" Q $end
$scope module dffe1 $end
$var wire 1 " clk $end
$var wire 1 # clr $end
$var wire 1 5" d $end
$var wire 1 7" en $end
$var reg 1 6" q $end
$upscope $end
$upscope $end
$scope module tff5 $end
$var wire 1 8" D $end
$var wire 1 = T $end
$var wire 1 " clk $end
$var wire 1 # clr $end
$var wire 1 9" Q $end
$scope module dffe1 $end
$var wire 1 " clk $end
$var wire 1 # clr $end
$var wire 1 8" d $end
$var wire 1 :" en $end
$var reg 1 9" q $end
$upscope $end
$upscope $end
$scope module tff6 $end
$var wire 1 ;" D $end
$var wire 1 > T $end
$var wire 1 " clk $end
$var wire 1 # clr $end
$var wire 1 <" Q $end
$scope module dffe1 $end
$var wire 1 " clk $end
$var wire 1 # clr $end
$var wire 1 ;" d $end
$var wire 1 =" en $end
$var reg 1 <" q $end
$upscope $end
$upscope $end
$scope module tff7 $end
$var wire 1 >" D $end
$var wire 1 ? T $end
$var wire 1 " clk $end
$var wire 1 # clr $end
$var wire 1 ?" Q $end
$scope module dffe1 $end
$var wire 1 " clk $end
$var wire 1 # clr $end
$var wire 1 >" d $end
$var wire 1 @" en $end
$var reg 1 ?" q $end
$upscope $end
$upscope $end
$scope module tff8 $end
$var wire 1 A" D $end
$var wire 1 @ T $end
$var wire 1 " clk $end
$var wire 1 # clr $end
$var wire 1 B" Q $end
$scope module dffe1 $end
$var wire 1 " clk $end
$var wire 1 # clr $end
$var wire 1 A" d $end
$var wire 1 C" en $end
$var reg 1 B" q $end
$upscope $end
$upscope $end
$scope module tff9 $end
$var wire 1 D" D $end
$var wire 1 A T $end
$var wire 1 " clk $end
$var wire 1 # clr $end
$var wire 1 E" Q $end
$scope module dffe1 $end
$var wire 1 " clk $end
$var wire 1 # clr $end
$var wire 1 D" d $end
$var wire 1 F" en $end
$var reg 1 E" q $end
$upscope $end
$upscope $end
$upscope $end
$upscope $end
$enddefinitions $end
#0
$dumpvars
1F"
0E"
0D"
1C"
0B"
0A"
1@"
0?"
0>"
1="
0<"
0;"
1:"
09"
08"
17"
06"
05"
14"
03"
02"
11"
00"
0/"
1."
0-"
0,"
1+"
0*"
0)"
1("
0'"
0&"
1%"
0$"
0#"
1""
0!"
0~
1}
0|
0{
1z
0y
0x
1w
0v
0u
1t
0s
0r
1q
0p
0o
1n
0m
0l
1k
0j
0i
1h
0g
0f
1e
0d
0c
1b
0a
0`
1_
0^
0]
1\
0[
0Z
1Y
0X
0W
1V
0U
0T
1S
0R
0Q
1P
0O
0N
1M
0L
0K
1J
0I
0H
0G
1F
0E
1D
1C
b0 B
0A
0@
0?
0>
0=
0<
0;
0:
09
08
07
06
05
04
03
02
01
00
0/
0.
0-
0,
0+
0*
0)
0(
0'
0&
0%
0$
0#
0"
b0 !
$end
#5
1G
0C
1H
b1 !
b1 B
1E
1"
#10
0"
#15
1C
0H
1I
b10 !
b10 B
0E
1"
#20
0"
#25
1i
1.
0G
0C
1H
b11 !
b11 B
1E
1"
#30
0"
#35
0.
1i
1C
0H
1j
0I
b100 !
b100 B
0E
1"
#40
0"
#45
1G
0C
1H
b101 !
b101 B
1E
1"
#50
0"
#55
1C
0H
1I
b110 !
b110 B
0E
1"
#60
0"
#65
1,"
19
0i
1.
0G
0C
1H
b111 !
b111 B
1E
1"
#70
0"
#75
09
0.
1,"
0i
1C
0H
1-"
0j
0I
b1000 !
b1000 B
0E
1"
#80
0"
#85
1G
0C
1H
b1001 !
b1001 B
1E
1"
#90
0"
#95
1C
0H
1I
b1010 !
b1010 B
0E
1"
#100
0"
#105
1i
1.
0G
0C
1H
b1011 !
b1011 B
1E
1"
#110
0"
#115
0.
1i
1C
0H
1j
0I
b1100 !
b1100 B
0E
1"
#120
0"
#125
1G
0C
1H
b1101 !
b1101 B
1E
1"
#130
0"
#135
1C
0H
1I
b1110 !
b1110 B
0E
1"
#140
0"
#145
15"
1<
0,"
19
0i
1.
0G
0C
1H
b1111 !
b1111 B
1E
1"
#150
0"
#155
0<
09
0.
15"
0,"
0i
1C
0H
16"
0-"
0j
0I
b10000 !
b10000 B
0E
1"
#160
0"
#165
1G
0C
1H
b10001 !
b10001 B
1E
1"
#170
0"
#175
1C
0H
1I
b10010 !
b10010 B
0E
1"
#180
0"
#185
1i
1.
0G
0C
1H
b10011 !
b10011 B
1E
1"
#190
0"
#195
0.
1i
1C
0H
1j
0I
b10100 !
b10100 B
0E
1"
#200
0"
#205
1G
0C
1H
b10101 !
b10101 B
1E
1"
#210
0"
#215
1C
0H
1I
b10110 !
b10110 B
0E
1"
#220
0"
#225
1,"
19
0i
1.
0G
0C
1H
b10111 !
b10111 B
1E
1"
#230
0"
#235
09
0.
1,"
0i
1C
0H
1-"
0j
0I
b11000 !
b11000 B
0E
1"
#240
0"
#245
1G
0C
1H
b11001 !
b11001 B
1E
1"
#250
0"
#255
1C
0H
1I
b11010 !
b11010 B
0E
1"
#260
0"
#265
1i
1.
0G
0C
1H
b11011 !
b11011 B
1E
1"
#270
0"
#275
0.
1i
1C
0H
1j
0I
b11100 !
b11100 B
0E
1"
#280
0"
#285
1G
0C
1H
b11101 !
b11101 B
1E
1"
#290
0"
#295
1C
0H
1I
b11110 !
b11110 B
0E
1"
#300
0"
#305
18"
1=
05"
1<
0,"
19
0i
1.
0G
0C
1H
b11111 !
b11111 B
1E
1"
#310
0"
#315
0=
0<
09
0.
18"
05"
0,"
0i
1C
0H
19"
06"
0-"
0j
0I
b100000 !
b100000 B
0E
1"
#320
0"
#325
1G
0C
1H
b100001 !
b100001 B
1E
1"
#330
0"
#335
1C
0H
1I
b100010 !
b100010 B
0E
1"
#340
0"
#345
1i
1.
0G
0C
1H
b100011 !
b100011 B
1E
1"
#350
0"
#355
0.
1i
1C
0H
1j
0I
b100100 !
b100100 B
0E
1"
#360
0"
#365
1G
0C
1H
b100101 !
b100101 B
1E
1"
#370
0"
#375
1C
0H
1I
b100110 !
b100110 B
0E
1"
#380
0"
#385
1,"
19
0i
1.
0G
0C
1H
b100111 !
b100111 B
1E
1"
#390
0"
#395
09
0.
1,"
0i
1C
0H
1-"
0j
0I
b101000 !
b101000 B
0E
1"
#400
0"
#405
1G
0C
1H
b101001 !
b101001 B
1E
1"
#410
0"
#415
1C
0H
1I
b101010 !
b101010 B
0E
1"
#420
0"
#425
1i
1.
0G
0C
1H
b101011 !
b101011 B
1E
1"
#430
0"
#435
0.
1i
1C
0H
1j
0I
b101100 !
b101100 B
0E
1"
#440
0"
#445
1G
0C
1H
b101101 !
b101101 B
1E
1"
#450
0"
#455
1C
0H
1I
b101110 !
b101110 B
0E
1"
#460
0"
#465
15"
1<
0,"
19
0i
1.
0G
0C
1H
b101111 !
b101111 B
1E
1"
#470
0"
#475
0<
09
0.
15"
0,"
0i
1C
0H
16"
0-"
0j
0I
b110000 !
b110000 B
0E
1"
#480
0"
#485
1G
0C
1H
b110001 !
b110001 B
1E
1"
#490
0"
#495
1C
0H
1I
b110010 !
b110010 B
0E
1"
#500
0"
#505
1i
1.
0G
0C
1H
b110011 !
b110011 B
1E
1"
#510
0"
#515
0.
1i
1C
0H
1j
0I
b110100 !
b110100 B
0E
1"
#520
0"
#525
1G
0C
1H
b110101 !
b110101 B
1E
1"
#530
0"
#535
1C
0H
1I
b110110 !
b110110 B
0E
1"
#540
0"
#545
1,"
19
0i
1.
0G
0C
1H
b110111 !
b110111 B
1E
1"
#550
0"
#555
09
0.
1,"
0i
1C
0H
1-"
0j
0I
b111000 !
b111000 B
0E
1"
#560
0"
#565
1G
0C
1H
b111001 !
b111001 B
1E
1"
#570
0"
#575
1C
0H
1I
b111010 !
b111010 B
0E
1"
#580
0"
#585
1i
1.
0G
0C
1H
b111011 !
b111011 B
1E
1"
#590
0"
#595
0.
1i
1C
0H
1j
0I
b111100 !
b111100 B
0E
1"
#600
0"
#605
1G
0C
1H
b111101 !
b111101 B
1E
1"
#610
0"
#615
1C
0H
1I
b111110 !
b111110 B
0E
1"
#620
0"
#625
1;"
1>
08"
1=
05"
1<
0,"
19
0i
1.
0G
0C
1H
b111111 !
b111111 B
1E
1"
#630
0"
#635
0>
0=
0<
09
0.
1;"
08"
05"
0,"
0i
1C
0H
1<"
09"
06"
0-"
0j
0I
b1000000 !
b1000000 B
0E
1"
#640
0"
#645
1G
0C
1H
b1000001 !
b1000001 B
1E
1"
#650
0"
#655
1C
0H
1I
b1000010 !
b1000010 B
0E
1"
#660
0"
#665
1i
1.
0G
0C
1H
b1000011 !
b1000011 B
1E
1"
#670
0"
#675
0.
1i
1C
0H
1j
0I
b1000100 !
b1000100 B
0E
1"
#680
0"
#685
1G
0C
1H
b1000101 !
b1000101 B
1E
1"
#690
0"
#695
1C
0H
1I
b1000110 !
b1000110 B
0E
1"
#700
0"
#705
1,"
19
0i
1.
0G
0C
1H
b1000111 !
b1000111 B
1E
1"
#710
0"
#715
09
0.
1,"
0i
1C
0H
1-"
0j
0I
b1001000 !
b1001000 B
0E
1"
#720
0"
#725
1G
0C
1H
b1001001 !
b1001001 B
1E
1"
#730
0"
#735
1C
0H
1I
b1001010 !
b1001010 B
0E
1"
#740
0"
#745
1i
1.
0G
0C
1H
b1001011 !
b1001011 B
1E
1"
#750
0"
#755
0.
1i
1C
0H
1j
0I
b1001100 !
b1001100 B
0E
1"
#760
0"
#765
1G
0C
1H
b1001101 !
b1001101 B
1E
1"
#770
0"
#775
1C
0H
1I
b1001110 !
b1001110 B
0E
1"
#780
0"
#785
15"
1<
0,"
19
0i
1.
0G
0C
1H
b1001111 !
b1001111 B
1E
1"
#790
0"
#795
0<
09
0.
15"
0,"
0i
1C
0H
16"
0-"
0j
0I
b1010000 !
b1010000 B
0E
1"
#800
0"
#805
1G
0C
1H
b1010001 !
b1010001 B
1E
1"
#810
0"
#815
1C
0H
1I
b1010010 !
b1010010 B
0E
1"
#820
0"
#825
1i
1.
0G
0C
1H
b1010011 !
b1010011 B
1E
1"
#830
0"
#835
0.
1i
1C
0H
1j
0I
b1010100 !
b1010100 B
0E
1"
#840
0"
#845
1G
0C
1H
b1010101 !
b1010101 B
1E
1"
#850
0"
#855
1C
0H
1I
b1010110 !
b1010110 B
0E
1"
#860
0"
#865
1,"
19
0i
1.
0G
0C
1H
b1010111 !
b1010111 B
1E
1"
#870
0"
#875
09
0.
1,"
0i
1C
0H
1-"
0j
0I
b1011000 !
b1011000 B
0E
1"
#880
0"
#885
1G
0C
1H
b1011001 !
b1011001 B
1E
1"
#890
0"
#895
1C
0H
1I
b1011010 !
b1011010 B
0E
1"
#900
0"
#905
1i
1.
0G
0C
1H
b1011011 !
b1011011 B
1E
1"
#910
0"
#915
0.
1i
1C
0H
1j
0I
b1011100 !
b1011100 B
0E
1"
#920
0"
#925
1G
0C
1H
b1011101 !
b1011101 B
1E
1"
#930
0"
#935
1C
0H
1I
b1011110 !
b1011110 B
0E
1"
#940
0"
#945
18"
1=
05"
1<
0,"
19
0i
1.
0G
0C
1H
b1011111 !
b1011111 B
1E
1"
#950
0"
#955
0=
0<
09
0.
18"
05"
0,"
0i
1C
0H
19"
06"
0-"
0j
0I
b1100000 !
b1100000 B
0E
1"
#960
0"
#965
1G
0C
1H
b1100001 !
b1100001 B
1E
1"
#970
0"
#975
1C
0H
1I
b1100010 !
b1100010 B
0E
1"
#980
0"
#985
1i
1.
0G
0C
1H
b1100011 !
b1100011 B
1E
1"
#990
0"
#995
0.
1i
1C
0H
1j
0I
b1100100 !
b1100100 B
0E
1"
#1000
0"
#1005
1G
0C
1H
b1100101 !
b1100101 B
1E
1"
#1010
0"
#1015
1C
0H
1I
b1100110 !
b1100110 B
0E
1"
#1020
0"
#1025
1,"
19
0i
1.
0G
0C
1H
b1100111 !
b1100111 B
1E
1"
#1030
0"
#1035
09
0.
1,"
0i
1C
0H
1-"
0j
0I
b1101000 !
b1101000 B
0E
1"
#1040
0"
#1045
1G
0C
1H
b1101001 !
b1101001 B
1E
1"
#1050
0"
#1055
1C
0H
1I
b1101010 !
b1101010 B
0E
1"
#1060
0"
#1065
1i
1.
0G
0C
1H
b1101011 !
b1101011 B
1E
1"
#1070
0"
#1075
0.
1i
1C
0H
1j
0I
b1101100 !
b1101100 B
0E
1"
#1080
0"
#1085
1G
0C
1H
b1101101 !
b1101101 B
1E
1"
#1090
0"
#1095
1C
0H
1I
b1101110 !
b1101110 B
0E
1"
#1100
0"
#1105
15"
1<
0,"
19
0i
1.
0G
0C
1H
b1101111 !
b1101111 B
1E
1"
#1110
0"
#1115
0<
09
0.
15"
0,"
0i
1C
0H
16"
0-"
0j
0I
b1110000 !
b1110000 B
0E
1"
#1120
0"
#1125
1G
0C
1H
b1110001 !
b1110001 B
1E
1"
#1130
0"
#1135
1C
0H
1I
b1110010 !
b1110010 B
0E
1"
#1140
0"
#1145
1i
1.
0G
0C
1H
b1110011 !
b1110011 B
1E
1"
#1150
0"
#1155
0.
1i
1C
0H
1j
0I
b1110100 !
b1110100 B
0E
1"
#1160
0"
#1165
1G
0C
1H
b1110101 !
b1110101 B
1E
1"
#1170
0"
#1175
1C
0H
1I
b1110110 !
b1110110 B
0E
1"
#1180
0"
#1185
1,"
19
0i
1.
0G
0C
1H
b1110111 !
b1110111 B
1E
1"
#1190
0"
#1195
09
0.
1,"
0i
1C
0H
1-"
0j
0I
b1111000 !
b1111000 B
0E
1"
#1200
0"
#1205
1G
0C
1H
b1111001 !
b1111001 B
1E
1"
#1210
0"
#1215
1C
0H
1I
b1111010 !
b1111010 B
0E
1"
#1220
0"
#1225
1i
1.
0G
0C
1H
b1111011 !
b1111011 B
1E
1"
#1230
0"
#1235
0.
1i
1C
0H
1j
0I
b1111100 !
b1111100 B
0E
1"
#1240
0"
#1245
1G
0C
1H
b1111101 !
b1111101 B
1E
1"
#1250
0"
#1255
1C
0H
1I
b1111110 !
b1111110 B
0E
1"
#1260
0"
#1265
1>"
1?
0;"
1>
08"
1=
05"
1<
0,"
19
0i
1.
0G
0C
1H
b1111111 !
b1111111 B
1E
1"
#1270
0"
#1275
0?
0>
0=
0<
09
0.
1>"
0;"
08"
05"
0,"
0i
1C
0H
1?"
0<"
09"
06"
0-"
0j
0I
b10000000 !
b10000000 B
0E
1"
#1280
0"
#1285
1G
0C
1H
b10000001 !
b10000001 B
1E
1"
#1290
0"
#1295
1C
0H
1I
b10000010 !
b10000010 B
0E
1"
#1300
0"
#1305
1i
1.
0G
0C
1H
b10000011 !
b10000011 B
1E
1"
#1310
0"
#1315
0.
1i
1C
0H
1j
0I
b10000100 !
b10000100 B
0E
1"
#1320
0"
#1325
1G
0C
1H
b10000101 !
b10000101 B
1E
1"
#1330
0"
#1335
1C
0H
1I
b10000110 !
b10000110 B
0E
1"
#1340
0"
#1345
1,"
19
0i
1.
0G
0C
1H
b10000111 !
b10000111 B
1E
1"
#1350
0"
#1355
09
0.
1,"
0i
1C
0H
1-"
0j
0I
b10001000 !
b10001000 B
0E
1"
#1360
0"
#1365
1G
0C
1H
b10001001 !
b10001001 B
1E
1"
#1370
0"
#1375
1C
0H
1I
b10001010 !
b10001010 B
0E
1"
#1380
0"
#1385
1i
1.
0G
0C
1H
b10001011 !
b10001011 B
1E
1"
#1390
0"
#1395
0.
1i
1C
0H
1j
0I
b10001100 !
b10001100 B
0E
1"
#1400
0"
#1405
1G
0C
1H
b10001101 !
b10001101 B
1E
1"
#1410
0"
#1415
1C
0H
1I
b10001110 !
b10001110 B
0E
1"
#1420
0"
#1425
15"
1<
0,"
19
0i
1.
0G
0C
1H
b10001111 !
b10001111 B
1E
1"
#1430
0"
#1435
0<
09
0.
15"
0,"
0i
1C
0H
16"
0-"
0j
0I
b10010000 !
b10010000 B
0E
1"
#1440
0"
#1445
1G
0C
1H
b10010001 !
b10010001 B
1E
1"
#1450
0"
#1455
1C
0H
1I
b10010010 !
b10010010 B
0E
1"
#1460
0"
#1465
1i
1.
0G
0C
1H
b10010011 !
b10010011 B
1E
1"
#1470
0"
#1475
0.
1i
1C
0H
1j
0I
b10010100 !
b10010100 B
0E
1"
#1480
0"
#1485
1G
0C
1H
b10010101 !
b10010101 B
1E
1"
#1490
0"
#1495
1C
0H
1I
b10010110 !
b10010110 B
0E
1"
#1500
0"
#1505
1,"
19
0i
1.
0G
0C
1H
b10010111 !
b10010111 B
1E
1"
#1510
0"
#1515
09
0.
1,"
0i
1C
0H
1-"
0j
0I
b10011000 !
b10011000 B
0E
1"
#1520
0"
#1525
1G
0C
1H
b10011001 !
b10011001 B
1E
1"
#1530
0"
#1535
1C
0H
1I
b10011010 !
b10011010 B
0E
1"
#1540
0"
#1545
1i
1.
0G
0C
1H
b10011011 !
b10011011 B
1E
1"
#1550
0"
#1555
0.
1i
1C
0H
1j
0I
b10011100 !
b10011100 B
0E
1"
#1560
0"
#1565
1G
0C
1H
b10011101 !
b10011101 B
1E
1"
#1570
0"
#1575
1C
0H
1I
b10011110 !
b10011110 B
0E
1"
#1580
0"
#1585
18"
1=
05"
1<
0,"
19
0i
1.
0G
0C
1H
b10011111 !
b10011111 B
1E
1"
#1590
0"
#1595
0=
0<
09
0.
18"
05"
0,"
0i
1C
0H
19"
06"
0-"
0j
0I
b10100000 !
b10100000 B
0E
1"
#1600
0"
#1605
1G
0C
1H
b10100001 !
b10100001 B
1E
1"
#1610
0"
#1615
1C
0H
1I
b10100010 !
b10100010 B
0E
1"
#1620
0"
#1625
1i
1.
0G
0C
1H
b10100011 !
b10100011 B
1E
1"
#1630
0"
#1635
0.
1i
1C
0H
1j
0I
b10100100 !
b10100100 B
0E
1"
#1640
0"
#1645
1G
0C
1H
b10100101 !
b10100101 B
1E
1"
#1650
0"
#1655
1C
0H
1I
b10100110 !
b10100110 B
0E
1"
#1660
0"
#1665
1,"
19
0i
1.
0G
0C
1H
b10100111 !
b10100111 B
1E
1"
#1670
0"
#1675
09
0.
1,"
0i
1C
0H
1-"
0j
0I
b10101000 !
b10101000 B
0E
1"
#1680
0"
#1685
1G
0C
1H
b10101001 !
b10101001 B
1E
1"
#1690
0"
#1695
1C
0H
1I
b10101010 !
b10101010 B
0E
1"
#1700
0"
#1705
1i
1.
0G
0C
1H
b10101011 !
b10101011 B
1E
1"
#1710
0"
#1715
0.
1i
1C
0H
1j
0I
b10101100 !
b10101100 B
0E
1"
#1720
0"
#1725
1G
0C
1H
b10101101 !
b10101101 B
1E
1"
#1730
0"
#1735
1C
0H
1I
b10101110 !
b10101110 B
0E
1"
#1740
0"
#1745
15"
1<
0,"
19
0i
1.
0G
0C
1H
b10101111 !
b10101111 B
1E
1"
#1750
0"
#1755
0<
09
0.
15"
0,"
0i
1C
0H
16"
0-"
0j
0I
b10110000 !
b10110000 B
0E
1"
#1760
0"
#1765
1G
0C
1H
b10110001 !
b10110001 B
1E
1"
#1770
0"
#1775
1C
0H
1I
b10110010 !
b10110010 B
0E
1"
#1780
0"
#1785
1i
1.
0G
0C
1H
b10110011 !
b10110011 B
1E
1"
#1790
0"
#1795
0.
1i
1C
0H
1j
0I
b10110100 !
b10110100 B
0E
1"
#1800
0"
#1805
1G
0C
1H
b10110101 !
b10110101 B
1E
1"
#1810
0"
#1815
1C
0H
1I
b10110110 !
b10110110 B
0E
1"
#1820
0"
#1825
1,"
19
0i
1.
0G
0C
1H
b10110111 !
b10110111 B
1E
1"
#1830
0"
#1835
09
0.
1,"
0i
1C
0H
1-"
0j
0I
b10111000 !
b10111000 B
0E
1"
#1840
0"
#1845
1G
0C
1H
b10111001 !
b10111001 B
1E
1"
#1850
0"
#1855
1C
0H
1I
b10111010 !
b10111010 B
0E
1"
#1860
0"
#1865
1i
1.
0G
0C
1H
b10111011 !
b10111011 B
1E
1"
#1870
0"
#1875
0.
1i
1C
0H
1j
0I
b10111100 !
b10111100 B
0E
1"
#1880
0"
#1885
1G
0C
1H
b10111101 !
b10111101 B
1E
1"
#1890
0"
#1895
1C
0H
1I
b10111110 !
b10111110 B
0E
1"
#1900
0"
